{
  "type": "service_account",
  "project_id": "cp35-1570563769633",
  "private_key_id": "f6dae19cb92a251c19aefe26595ce10ae9e02642",
  "private_key": "-----BEGIN PRIVATE KEY-----\nMIIEvwIBADANBgkqhkiG9w0BAQEFAASCBKkwggSlAgEAAoIBAQCl6KXPh+wUHOFl\n2Lo4CgGClQ4c7p/PZx9cu0YlrklSJ69aYYshGRBdAgfn1dh8IOolBgKssEpn1sUI\nTyZ8q+LfxByHZRQ6IWhyTxH3GkgGrf59OF48Ho19Xe1YRlf9Qn5dQVVCQru22nfO\nAdWWxbfGzXEECj0/Rzpg3UBWAyvroZQ5A3/HbhG+A07hKjGWUubLE3n6+16r9UG1\nliT2z5+zfg0YVbUNYGpKwUlQLMDAJfT4gtwYute4TuRH2tXXz3e2B0PCmgvDa5lp\ncSa7hOpoOjCukCisRtQim/pdAqL4Z2YvYAhUi7d0B/2TYq+J9N5w4nxgG5rvHkOg\n79ap54SHAgMBAAECggEACHB0IWwIPeGriX25GJP8YwMSq7VrsFDOOe5WHCE9yOMM\nkBa5eAk0BDclOyLCl1XT8zwss1ITBtiC6fBKGeS4bqoldVxWkg+++17loAyDMMEg\nWohH1YZhq3M1WTHYKfbRl2F1D8t14aWX8IUMCKutXycgzOl5whftHUjui9wvcMCQ\ni8iRDq+JGk3OcogqfYx8oDH/EdjffYGQ80U9p7iapmRniKOx0ox+hYM59incY42V\nMp7cTu9/JpAGa7QJfIYaj5wdeGvuezazW900/bm2JoRUka74o3UekfTB57HrqmMW\nTwpCMZP0NFgUQcrHVBqEwqclxm7d1LucBGXNphLwgQKBgQDqPaI1ccJIZVxGIVMu\nwQzZR1bn8J6qbVx763WbroRcmZPfxwgfGKHe+rw72WYGf/T+UG8RmjQ91LoOma9p\nOB6sCtfJ7By1WJxBPWTJLvbHUrfZTlxZKjf5B4qFlnXTbzqemgNwl0v4FObrof6X\nenMpQmaNxtfuutYCzaStb/eexwKBgQC1UgtYrOmr+QcEoLetlwW9FhShg2q0n/2d\n+PSq/0UqwiMPapn1anFPshPJMPXIzztgDRseCMrjc5Q/SmgnCFAvMBy7gVjk7sAy\nrf0YSZ16vNqYPRenfe4Jr/F+4J8i6J8EzYEnTWB6T/q0XltHeeAyxml4EETN5UfC\nrj4Gp1IsQQKBgQC2xcrJCu++z6BVdHFUnPvqmli8eCtF7jlo1AwbouvS2V7iEIpM\nwUqlE15HENYkIjnHKnnP8VPsHw3ikJancku0kG1aOGsaMX8TBNWciZGza97ap+M1\nC9VK8lBq9kEP7s19rc0bUGLNu3mHyQo/piMvwYkF/W7F73FIFK/3SNOdRwKBgQCF\nKpByu+uSBf8FgxPjRbtNN95HEMFZjvcxAhqPS5N857/gHqab+2Tk5yBo7rBUnv44\neOelk0eO7N+/6+G6aPya63burvyehkpZ7jank8k4z2Kr1JJ+zJn6O2HdkRLPDJFd\ncaCdQNLOgdbaiUH4qKXkJJxpNWmS3gVqEZY0RMaxAQKBgQDHkcNQjMftl/XMTmua\nIfeHblaBtR3RBUU3ifw/eDFeoZHtW0WC3yVAW7mMz1k7o/S9MZ6bA261r5fbVu5E\nyQg22pCYqcZZMjm0pcZh0UuELFyPXotEvIxr7xCPyLo2ARlwGl3CG5ctM5EsQQ8w\noZdlYRwfI29WrhuQe8TKGolbmQ==\n-----END PRIVATE KEY-----\n",
  "client_email": "starting-account-vtsvqnxo0hvy@cp35-1570563769633.iam.gserviceaccount.com",
  "client_id": "113264885503422694197",
  "auth_uri": "https://accounts.google.com/o/oauth2/auth",
  "token_uri": "https://oauth2.googleapis.com/token",
  "auth_provider_x509_cert_url": "https://www.googleapis.com/oauth2/v1/certs",
  "client_x509_cert_url": "https://www.googleapis.com/robot/v1/metadata/x509/starting-account-vtsvqnxo0hvy%40cp35-1570563769633.iam.gserviceaccount.com"
}
